{
 "policies": {
   "NoDefaultBookmarks": true,
   "DisableFirefoxStudies": true,
   "DisablePocket": true,
   "DisableTelemetry": true,
   "DisableFirefoxAccounts": true,
   "SearchSuggestEnabled": false,
   "EnableTrackingProtection": {
	   "Value": true,
	   "Fingerprinting": true,
	   "Cryptomining": true,
	   "EmailTracking": true
   },
    "Permissions": {
      "Location": {
        "BlockNewRequests": true,
        "Locked": true
      },
      "Notifications": {
        "BlockNewRequests": true,
        "Locked": true
      },
      "VirtualReality": {
        "BlockNewRequests": true,
        "Locked": true
      }
    },

    "ExtensionSettings": {
      "uMatrix@raymondhill.net": {
        "installation_mode": "normal_installed",
        "install_url": "https://addons.mozilla.org/firefox/downloads/latest/umatrix/latest.xpi"
      },
      "fr-dicollecte@dictionaries.addons.mozilla.org": {
        "installation_mode": "force_installed",
        "install_url": "https://addons.mozilla.org/firefox/downloads/latest/dictionnaire-français1/latest.xpi"
      },
      "French-GC@grammalecte.net": {
        "installation_mode": "normal_installed",
        "install_url": "https://addons.mozilla.org/firefox/downloads/latest/grammalecte-fr/latest.xpi"
      }
    },

    "Bookmarks": [
      {
        "Title": "Archlinux - Packages",
        "URL": "https://archlinux.org/packages/?sort=&q=%s",
	"Keyword": "!ap"
      },
      {
        "Title": "Archlinux - Wiki",
        "URL": "https://wiki.archlinux.org/index.php?title=Special%3ASearch&wprov=acrw1_-1&search=%s",
	"Keyword": "!a"
      },
      {
        "Title": "Archlinux - Man",
        "URL": "https://man.archlinux.org/listing?sort_by=name&sort_order=asc&pkgname=%s",
	"Keyword": "!am"
      },
      {
        "Title": "OpenStreetMap",
        "URL": "https://www.openstreetmap.org/search?query=%s",
	"Keyword": "!o"
      },
      {
        "Title": "DeepL",
        "URL": "https://www.deepl.com/fr/translator#en/fr/%s",
	"Keyword": "!dl"
      },
      {
        "Title": "Wordreference",
        "URL": "https://www.wordreference.com/redirect/translation.aspx?dict=fren&w=%s",
	"Keyword": "!wr"
      },
      {
        "Title": "Wikipedia",
        "URL": "https://fr.wikipedia.org/w/index.php?title=Sp%C3%A9cial%3ARecherche&search=%s",
	"Keyword": "!w"
      },
      {
        "Title": "Wikipedia - en",
        "URL": "https://en.wikipedia.org/w/index.php?title=Special%3ASearch&search=%s",
	"Keyword": "!wen"
      },
      {
        "Title": "Wiktionnaire",
        "URL": "https://fr.wiktionary.org/w/index.php?title=Sp%C3%A9cial%3ARecherche&search=%s",
	"Keyword": "!wt"
      },
      {
        "Title": "Python docs fr",
        "URL": "https://docs.python.org/fr/3/search.html?q=%s",
	"Keyword": "!p"
      },
      {
        "Title": "Anilist",
        "URL": "https://anilist.co/search/anime?search=%s",
	"Keyword": "!al"
      }
    ]
 }
}
